<?xml version="1.0" encoding="utf-8"?>
<!-- Generator: Adobe Illustrator 17.1.0, SVG Export Plug-In . SVG Version: 6.00 Build 0)  -->
<!DOCTYPE svg PUBLIC "-//W3C//DTD SVG 1.1//EN" "http://www.w3.org/Graphics/SVG/1.1/DTD/svg11.dtd">
<svg version="1.1" id="infographic-element-7" xmlns="http://www.w3.org/2000/svg" xmlns:xlink="http://www.w3.org/1999/xlink"
	 x="0px" y="0px" viewBox="0 0 1010 556.8149" enable-background="new 0 0 1010 556.8149" xml:space="preserve">
<path id="infographic-element-7-infographic-element-7" fill="#323B5A" d="M731.6094,0C660.5762,0,594,26.2363,542.3652,74.2705
	c22.4727,29.0312,39.9795,61.5801,51.8155,96.1343c32.5986-41.5244,82.8349-66.7085,137.4287-66.7085
	c96.331,0,174.7109,78.3799,174.7109,174.7114c0,96.332-78.3799,174.7119-174.7109,174.7119
	c-96.3477,0-174.7285-78.3799-174.7285-174.7119C556.8809,124.8691,431.979,0,278.4404,0C124.9023,0,0,124.8691,0,278.4077
	c0,153.5059,124.9023,278.4072,278.4404,278.4072c71.295,0,137.9546-26.1699,189.4737-74.1054
	c-22.6197-29.0967-40.2095-61.6788-52.0616-96.2989c-32.6147,41.5244-82.8349,66.709-137.4121,66.709
	c-96.3149,0-174.6953-78.3799-174.6953-174.7119c0-96.3315,78.3804-174.7114,174.6953-174.7114
	c96.3477,0,174.7281,78.3799,174.7281,174.7114c0,153.5059,124.9018,278.4072,278.4409,278.4072
	C885.1143,556.8149,1010,431.9136,1010,278.4077C1010,124.8691,885.1143,0,731.6094,0z"/>
</svg>
